// Jest Snapshot v1, https://goo.gl/fbAQLP

exports[`PicrossEditor.vue match image snapshot for a 10x10 picross and two cells enabled 1`] = `
<table>
  <tr>
    <td class=""></td>
    <td class=""></td>
    <td class=""></td>
    <td class=""></td>
    <td class=""></td>
    <td class=""></td>
    <td class=""></td>
    <td class=""></td>
    <td class=""></td>
    <td class=""></td>
    <td class=""></td>
  </tr>
  <tr>
    <td class=""></td>
    <td class=""></td>
    <td class="selected"></td>
    <td class=""></td>
    <td class=""></td>
    <td class=""></td>
    <td class=""></td>
    <td class=""></td>
    <td class=""></td>
    <td class=""></td>
    <td class=""></td>
  </tr>
  <tr>
    <td class=""></td>
    <td class=""></td>
    <td class=""></td>
    <td class="selected"></td>
    <td class=""></td>
    <td class=""></td>
    <td class=""></td>
    <td class=""></td>
    <td class=""></td>
    <td class=""></td>
    <td class=""></td>
  </tr>
  <tr>
    <td class=""></td>
    <td class=""></td>
    <td class=""></td>
    <td class=""></td>
    <td class=""></td>
    <td class=""></td>
    <td class=""></td>
    <td class=""></td>
    <td class=""></td>
    <td class=""></td>
    <td class=""></td>
  </tr>
  <tr>
    <td class=""></td>
    <td class=""></td>
    <td class=""></td>
    <td class=""></td>
    <td class=""></td>
    <td class=""></td>
    <td class=""></td>
    <td class=""></td>
    <td class=""></td>
    <td class=""></td>
    <td class=""></td>
  </tr>
  <tr>
    <td class=""></td>
    <td class=""></td>
    <td class=""></td>
    <td class=""></td>
    <td class=""></td>
    <td class=""></td>
    <td class=""></td>
    <td class=""></td>
    <td class=""></td>
    <td class=""></td>
    <td class=""></td>
  </tr>
  <tr>
    <td class=""></td>
    <td class=""></td>
    <td class=""></td>
    <td class=""></td>
    <td class=""></td>
    <td class=""></td>
    <td class=""></td>
    <td class=""></td>
    <td class=""></td>
    <td class=""></td>
    <td class=""></td>
  </tr>
  <tr>
    <td class=""></td>
    <td class=""></td>
    <td class=""></td>
    <td class=""></td>
    <td class=""></td>
    <td class=""></td>
    <td class=""></td>
    <td class=""></td>
    <td class=""></td>
    <td class=""></td>
    <td class=""></td>
  </tr>
  <tr>
    <td class=""></td>
    <td class=""></td>
    <td class=""></td>
    <td class=""></td>
    <td class=""></td>
    <td class=""></td>
    <td class=""></td>
    <td class=""></td>
    <td class=""></td>
    <td class=""></td>
    <td class=""></td>
  </tr>
  <tr>
    <td class=""></td>
    <td class=""></td>
    <td class=""></td>
    <td class=""></td>
    <td class=""></td>
    <td class=""></td>
    <td class=""></td>
    <td class=""></td>
    <td class=""></td>
    <td class=""></td>
    <td class=""></td>
  </tr>
  <tr>
    <td class=""></td>
    <td class=""></td>
    <td class=""></td>
    <td class=""></td>
    <td class=""></td>
    <td class=""></td>
    <td class=""></td>
    <td class=""></td>
    <td class=""></td>
    <td class=""></td>
    <td class=""></td>
  </tr>
</table>
`;

exports[`PicrossEditor.vue match snapshot for a 10x10 picross 1`] = `
<table>
  <tr>
    <td class=""></td>
    <td class=""></td>
    <td class=""></td>
    <td class=""></td>
    <td class=""></td>
    <td class=""></td>
    <td class=""></td>
    <td class=""></td>
    <td class=""></td>
    <td class=""></td>
    <td class=""></td>
  </tr>
  <tr>
    <td class=""></td>
    <td class=""></td>
    <td class=""></td>
    <td class=""></td>
    <td class=""></td>
    <td class=""></td>
    <td class=""></td>
    <td class=""></td>
    <td class=""></td>
    <td class=""></td>
    <td class=""></td>
  </tr>
  <tr>
    <td class=""></td>
    <td class=""></td>
    <td class=""></td>
    <td class=""></td>
    <td class=""></td>
    <td class=""></td>
    <td class=""></td>
    <td class=""></td>
    <td class=""></td>
    <td class=""></td>
    <td class=""></td>
  </tr>
  <tr>
    <td class=""></td>
    <td class=""></td>
    <td class=""></td>
    <td class=""></td>
    <td class=""></td>
    <td class=""></td>
    <td class=""></td>
    <td class=""></td>
    <td class=""></td>
    <td class=""></td>
    <td class=""></td>
  </tr>
  <tr>
    <td class=""></td>
    <td class=""></td>
    <td class=""></td>
    <td class=""></td>
    <td class=""></td>
    <td class=""></td>
    <td class=""></td>
    <td class=""></td>
    <td class=""></td>
    <td class=""></td>
    <td class=""></td>
  </tr>
  <tr>
    <td class=""></td>
    <td class=""></td>
    <td class=""></td>
    <td class=""></td>
    <td class=""></td>
    <td class=""></td>
    <td class=""></td>
    <td class=""></td>
    <td class=""></td>
    <td class=""></td>
    <td class=""></td>
  </tr>
  <tr>
    <td class=""></td>
    <td class=""></td>
    <td class=""></td>
    <td class=""></td>
    <td class=""></td>
    <td class=""></td>
    <td class=""></td>
    <td class=""></td>
    <td class=""></td>
    <td class=""></td>
    <td class=""></td>
  </tr>
  <tr>
    <td class=""></td>
    <td class=""></td>
    <td class=""></td>
    <td class=""></td>
    <td class=""></td>
    <td class=""></td>
    <td class=""></td>
    <td class=""></td>
    <td class=""></td>
    <td class=""></td>
    <td class=""></td>
  </tr>
  <tr>
    <td class=""></td>
    <td class=""></td>
    <td class=""></td>
    <td class=""></td>
    <td class=""></td>
    <td class=""></td>
    <td class=""></td>
    <td class=""></td>
    <td class=""></td>
    <td class=""></td>
    <td class=""></td>
  </tr>
  <tr>
    <td class=""></td>
    <td class=""></td>
    <td class=""></td>
    <td class=""></td>
    <td class=""></td>
    <td class=""></td>
    <td class=""></td>
    <td class=""></td>
    <td class=""></td>
    <td class=""></td>
    <td class=""></td>
  </tr>
  <tr>
    <td class=""></td>
    <td class=""></td>
    <td class=""></td>
    <td class=""></td>
    <td class=""></td>
    <td class=""></td>
    <td class=""></td>
    <td class=""></td>
    <td class=""></td>
    <td class=""></td>
    <td class=""></td>
  </tr>
</table>
`;
